…
    ## Rows: 1 Columns: 8

    ## ── Column specification ────────────────────────────────────────────────────────
    ## Delimiter: ","
    ## dbl (8): week_1, week_2, week_3, week_4, week_5, week_6, week_7, week_8

    ## 
    ## ℹ Use `spec()` to retrieve the full column specification for this data.
    ## ℹ Specify the column types or set `show_col_types = FALSE` to quiet this message.

``` r
arm_df
```

    ## # A tibble: 160 × 5
    ##    arm_id arm     id    week  observations
    ##    <chr>  <chr>   <chr> <chr>        <dbl>
    ##  1 con_01 control 01    1             0.2 
    ##  2 con_01 control 01    2            -1.31
    ##  3 con_01 control 01    3             0.66
    ##  4 con_01 control 01    4             1.96
    ##  5 con_01 control 01    5             0.23
    ##  6 con_01 control 01    6             1.09
    ##  7 con_01 control 01    7             0.05
    ##  8 con_01 control 01    8             1.94
    ##  9 con_02 control 02    1             1.13
    ## 10 con_02 control 02    2            -0.88
    ## # … with 150 more rows
…
### Apply this function to fill missing values

``` r
filled_iris = 
  iris_with_missing %>% 
  map_df(~fill_missing(.x))

filled_iris
```

    ## # A tibble: 150 × 5
    ##    Sepal.Length Sepal.Width Petal.Length Petal.Width Species
    ##           <dbl>       <dbl>        <dbl>       <dbl> <chr>  
    ##  1          5.1         3.5          1.4         0.2 setosa 
    ##  2          4.9         3            1.4         0.2 setosa 
    ##  3          4.7         3.2          1.3         0.2 setosa 
    ##  4          4.6         3.1          1.5         1.2 setosa 
    ##  5          5           3.6          1.4         0.2 setosa 
    ##  6          5.4         3.9          1.7         0.4 setosa 
    ##  7          5.8         3.4          1.4         0.3 setosa 
    ##  8          5           3.4          1.5         0.2 setosa 
    ##  9          4.4         2.9          1.4         0.2 setosa 
    ## 10          4.9         3.1          3.8         0.1 setosa 
    ## # … with 140 more rows
